Project 1: Explanatory Data Analysis
…
##General Cleaning: Clean the Columns

# Select the variables of importance and drop irrelevant columns from df_gundeaths
vars_gundeaths <- c("Month_Code", "Deaths")
df_gundeaths <- df_gundeaths[vars_gundeaths]

# Select the variables of importance and drop irrelevant columns from df_BCpermits
vars_BCpermits <- c("month", "handgun", "long_gun", "totals")
df_BCpermits <- df_BCpermits[vars_BCpermits]

# Consolidate and sum multiple entries for a given month
df_gundeaths <- df_gundeaths %>% group_by(Month_Code) %>% summarize_all(sum) 
df_gundeaths

## # A tibble: 108 x 2
##    Month_Code Deaths
##    <chr>       <int>
##  1 2010-01      2568
##  2 2010-02      2183
##  3 2010-03      2651
##  4 2010-04      2671
##  5 2010-05      2761
##  6 2010-06      2719
##  7 2010-07      2933
##  8 2010-08      2774
##  9 2010-09      2588
## 10 2010-10      2725
## # ... with 98 more rows
…
# Report number of dropped rows in the merge
suppressWarnings(checkmerge_BCpermits <- nrow(anti_join(df_BCpermits, df_merged, by='Month_Code')))
print(paste0("There were ", checkmerge_BCpermits, " rows in the BCpermits data that were excluded in the merged dataset"))

## [1] "There were 147 rows in the BCpermits data that were excluded in the merged dataset"

suppressWarnings(checkmerge_gundeaths <- nrow(anti_join(df_gundeaths, df_merged, by='Month_Code')))
print(paste0("There were ", checkmerge_gundeaths, " rows in the gundeaths data that were excluded in the merged dataset"))

## [1] "There were 0 rows in the gundeaths data that were excluded in the merged dataset"

df_merged

## # A tibble: 108 x 5
##    Month_Code Deaths handgun long_gun  totals
##    <chr>       <int>   <int>    <int>   <int>
##  1 2010-01      2568  289444   349597 1112312
##  2 2010-02      2183  360273   387244 1237617
##  3 2010-03      2651  367921   421284 1291618
##  4 2010-04      2671  314326   349370 1226760
##  5 2010-05      2761  275408   290452 1009818
##  6 2010-06      2719  259339   279249  998262
##  7 2010-07      2933  268987   288281 1062886
##  8 2010-08      2774  280874   367074 1082360
##  9 2010-09      2588  275133   415323 1139880
## 10 2010-10      2725  291203   475736 1359894
## # ... with 98 more rows
…
Note: some wrangling was completed in the previous sections (group_by & summarize) and is marked by a comment

Mutate: Extract the month and year from the month code (yyyy-mm to yyyy and mm as separate columns) and create a variable to sort with

df_merged <- df_merged %>% mutate(year = as.numeric(stri_sub(Month_Code, 1,4))) 
df_merged <- df_merged %>% mutate(month = (stri_sub(Month_Code, 6,7))) 
df_merged <- df_merged %>% mutate(monthsort = str_replace(Month_Code, '-','')) 

Arrange: Sort the data chronologically

df_merged <- df_merged %>% arrange(monthsort)
df_merged

## # A tibble: 108 x 8
##    Month_Code Deaths handgun long_gun  totals  year month monthsort
##    <chr>       <int>   <int>    <int>   <int> <dbl> <chr> <chr>    
##  1 2010-01      2568  289444   349597 1112312  2010 01    201001   
##  2 2010-02      2183  360273   387244 1237617  2010 02    201002   
##  3 2010-03      2651  367921   421284 1291618  2010 03    201003   
##  4 2010-04      2671  314326   349370 1226760  2010 04    201004   
##  5 2010-05      2761  275408   290452 1009818  2010 05    201005   
##  6 2010-06      2719  259339   279249  998262  2010 06    201006   
##  7 2010-07      2933  268987   288281 1062886  2010 07    201007   
##  8 2010-08      2774  280874   367074 1082360  2010 08    201008   
##  9 2010-09      2588  275133   415323 1139880  2010 09    201009   
## 10 2010-10      2725  291203   475736 1359894  2010 10    201010   
## # ... with 98 more rows

Select: Drop unnecessary columns

df_merged <- df_merged %>% select(-Month_Code)
df_merged

## # A tibble: 108 x 7
##    Deaths handgun long_gun  totals  year month monthsort
##     <int>   <int>    <int>   <int> <dbl> <chr> <chr>    
##  1   2568  289444   349597 1112312  2010 01    201001   
##  2   2183  360273   387244 1237617  2010 02    201002   
##  3   2651  367921   421284 1291618  2010 03    201003   
##  4   2671  314326   349370 1226760  2010 04    201004   
##  5   2761  275408   290452 1009818  2010 05    201005   
##  6   2719  259339   279249  998262  2010 06    201006   
##  7   2933  268987   288281 1062886  2010 07    201007   
##  8   2774  280874   367074 1082360  2010 08    201008   
##  9   2588  275133   415323 1139880  2010 09    201009   
## 10   2725  291203   475736 1359894  2010 10    201010   
## # ... with 98 more rows
…
